<?xml version="1.0" encoding="UTF-8" standalone="no"?>
<svg
   xmlns:dc="http://purl.org/dc/elements/1.1/"
   xmlns:cc="http://creativecommons.org/ns#"
   xmlns:rdf="http://www.w3.org/1999/02/22-rdf-syntax-ns#"
   xmlns:svg="http://www.w3.org/2000/svg"
   xmlns="http://www.w3.org/2000/svg"
   xmlns:sodipodi="http://sodipodi.sourceforge.net/DTD/sodipodi-0.dtd"
   xmlns:inkscape="http://www.inkscape.org/namespaces/inkscape"
   version="1.1"
   viewBox="0 0 560 164"
   width="1120"
   height="328"
   id="svg2"
   inkscape:version="0.91 r13725"
   sodipodi:docname="icon.svg"
   inkscape:export-filename="/tmp/icon.png"
   inkscape:export-xdpi="204.73"
   inkscape:export-ydpi="204.73">
  <metadata
     id="metadata91">
    <rdf:RDF>
      <cc:Work
         rdf:about="">
        <dc:format>image/svg+xml</dc:format>
        <dc:type
           rdf:resource="http://purl.org/dc/dcmitype/StillImage" />
        <dc:title></dc:title>
      </cc:Work>
    </rdf:RDF>
  </metadata>
  <sodipodi:namedview
     pagecolor="#ffffff"
     bordercolor="#666666"
     borderopacity="1"
     objecttolerance="10"
     gridtolerance="10"
     guidetolerance="10"
     inkscape:pageopacity="0"
     inkscape:pageshadow="2"
     inkscape:window-width="1871"
     inkscape:window-height="1056"
     id="namedview89"
     showgrid="false"
     inkscape:zoom="1.0642857"
     inkscape:cx="521.5362"
     inkscape:cy="97.316382"
     inkscape:window-x="49"
     inkscape:window-y="24"
     inkscape:window-maximized="1"
     inkscape:current-layer="svg2"
     showguides="true"
     inkscape:guide-bbox="true">
    <sodipodi:guide
       position="292.68456,135.77181"
       orientation="0,1"
       id="guide4422" />
    <sodipodi:guide
       position="267.31544,135.77181"
       orientation="1,0"
       id="guide4424" />
  </sodipodi:namedview>
  <defs
     id="defs4">
    <radialGradient
       id="radialGradient4398"
       gradientUnits="userSpaceOnUse"
       cy="-12.89"
       cx="113"
       gradientTransform="matrix(-4.3416e-8,1.9611,-1.9778,2.8494e-8,3.507,-200.6)"
       r="59.662">
      <stop
         stop-color="#fff"
         stop-opacity=".098039"
         offset="0"
         id="stop7" />
      <stop
         stop-color="#fff"
         stop-opacity="0"
         offset="1"
         id="stop9" />
    </radialGradient>
  </defs>
  <g
     id="g4397"
     transform="matrix(0.27410292,0,0,0.27410292,222.41763,27.213778)">
    <path
       id="path43"
       d="M 144.34,23.797 133.16,38.27"
       inkscape:connector-curvature="0"
       style="fill:#8ab000;stroke:#769616;stroke-width:6.579;stroke-linecap:round" />
    <path
       id="path45"
       d="m 144.29,20.5 c 1.1933,0.0316 2.0045,0.49736 2.5809,1.1805 -5.334,6.3392 -6.2326,7.3463 -13.514,16.372 -2.683,3.471 -5.4779,1.6771 -2.7949,-1.7939 l 11.184,-14.474 c 0.60261,-0.80421 1.5397,-1.2579 2.5442,-1.285 z"
       inkscape:connector-curvature="0"
       style="fill:#ffffff;fill-opacity:0.29803999" />
    <path
       id="path47"
       d="m 146.89,21.713 c 0.32604,0.38921 1.4768,2.1174 0.0592,4.0952 l -11.184,14.474 c -2.683,3.471 -3.026,-1.6113 -3.026,-1.6113 0,0 9.8275,-11.868 14.151,-16.958 z"
       inkscape:connector-curvature="0"
       style="fill:#263238;fill-opacity:0.2" />
    <path
       id="path49"
       d="m 145.01,21.118 c 1.1531,0 2.526,0.37263 2.169,2.1016 -0.27253,1.32 -12.265,15.985 -12.265,15.985 -2.683,3.471 -6.5618,1.7797 -3.8788,-1.6908 l 11.143,-14.402 c 0.68484,-0.76316 1.6014,-1.9568 2.832,-1.9942 z"
       inkscape:connector-curvature="0"
       style="fill:#8ab000" />
    <path
       id="path51"
       d="M 31.655,23.797 42.84,38.27"
       inkscape:connector-curvature="0"
       style="fill:#8ab000;stroke:#769616;stroke-width:6.579;stroke-linecap:round" />
    <path
       id="path53"
       d="m 31.714,20.5 c -1.1933,0.0316 -2.0045,0.49736 -2.5809,1.1805 5.334,6.3392 6.2326,7.3463 13.514,16.372 2.683,3.471 5.4779,1.6771 2.7949,-1.7939 L 34.258,21.7866 c -0.60261,-0.80421 -1.5397,-1.2579 -2.5442,-1.285 z"
       inkscape:connector-curvature="0"
       style="fill:#ffffff;fill-opacity:0.29803999" />
    <path
       id="path55"
       d="m 29.111,21.713 c -0.32604,0.38921 -1.4768,2.1174 -0.0592,4.0952 l 11.184,14.474 c 2.683,3.471 3.026,-1.6113 3.026,-1.6113 0,0 -9.8275,-11.868 -14.151,-16.958 z"
       inkscape:connector-curvature="0"
       style="fill:#263238;fill-opacity:0.2" />
    <path
       id="path57"
       d="m 30.995,21.118 c -1.1531,0 -2.526,0.37263 -2.169,2.1016 0.27253,1.32 12.265,15.985 12.265,15.985 2.683,3.471 6.5618,1.7797 3.8788,-1.6908 l -11.143,-14.402 c -0.685,-0.763 -1.602,-1.957 -2.832,-1.994 z"
       inkscape:connector-curvature="0"
       style="fill:#8ab000" />
    <rect
       id="rect59"
       x="38"
       y="33"
       width="100"
       height="34"
       ry="7.8947001"
       rx="7.8948002"
       style="fill:#aeea00" />
    <rect
       id="rect61"
       x="38"
       y="40.683998"
       width="100"
       height="26.316"
       ry="7.8947001"
       rx="7.8948002"
       style="fill:#263238;fill-opacity:0.2" />
    <rect
       id="rect63"
       x="38"
       y="33.007"
       width="100"
       height="26.316"
       ry="7.8947001"
       rx="7.8948002"
       style="fill:#ffffff;fill-opacity:0.29803999" />
    <rect
       id="rect65"
       x="38"
       y="36.001999"
       width="100"
       height="28.002001"
       ry="6.4619999"
       rx="7.8948002"
       style="fill:#aeea00" />
    <rect
       id="rect67"
       x="38"
       y="70"
       width="100"
       height="68"
       ry="7.8947001"
       rx="7.8948002"
       style="fill:#1976d2" />
    <rect
       id="rect69"
       x="38"
       y="103.79"
       width="100"
       height="34.209999"
       ry="7.8947001"
       rx="7.8948002"
       style="fill:#263238;fill-opacity:0.2" />
    <rect
       id="rect71"
       x="38"
       y="69.790001"
       width="100"
       height="34.209999"
       ry="7.8947001"
       rx="7.8948002"
       style="fill:#ffffff;fill-opacity:0.2" />
    <rect
       id="rect73"
       x="38"
       y="73"
       width="100"
       height="62"
       ry="7.1538"
       rx="7.8948002"
       style="fill:#1976d2" />
    <path
       id="path75"
       d="m 88,87.61 c -7.5807,0 -13.999,5.2228 -15.877,12.238 l 8.455,0 c 1.4587,-2.593 4.1977,-4.3431 7.4219,-4.3431 4.7703,0 8.5527,3.7824 8.5527,8.5526 0,4.7702 -3.7824,8.5526 -8.5527,8.5526 -3.4405,0 -6.3454,-1.9808 -7.7097,-4.8674 l -8.3008,0 c 1.6901,7.2783 8.2418,12.762 16.011,12.762 9.0369,0 16.447,-7.4105 16.447,-16.447 0,-9.0369 -7.4105,-16.447 -16.447,-16.447 z"
       inkscape:connector-curvature="0"
       style="fill:#0d47a1" />
    <circle
       id="circle77"
       r="25.132"
       cx="88"
       cy="104.06"
       style="fill:none;stroke:#0d47a1;stroke-width:5;stroke-linecap:round" />
    <ellipse
       id="ellipse79"
       cx="62.669998"
       cy="50.441002"
       ry="10.197"
       rx="8.8816004"
       style="fill:#263238;fill-opacity:0.2" />
    <circle
       id="circle81"
       r="8.8816004"
       cx="62.669998"
       cy="51.757"
       style="fill:#ffffff" />
    <ellipse
       id="ellipse83"
       cx="113.99"
       cy="50.441002"
       ry="10.197"
       rx="8.8816004"
       style="fill:#263238;fill-opacity:0.2" />
    <circle
       id="circle85"
       r="8.8816004"
       cx="113.99"
       cy="51.757"
       style="fill:#ffffff" />
    <path
       id="path87"
       d="m 31.715,20.473 a 3.2898,3.2898 0 0 0 -2.6621,5.3359 l 9.4746,12.262 c -0.33497,0.87752 -0.52734,1.8262 -0.52734,2.8242 l 0,18.211 c 0,4.3737 3.5208,7.8945 7.8945,7.8945 l 84.211,0 c 4.3737,0 7.8945,-3.5209 7.8945,-7.8945 l 0,-18.211 c 0,-0.99858 -0.19005,-1.9482 -0.52539,-2.8262 l 9.4727,-12.26 a 3.2898,3.2898 0 0 0 -2.4336,-5.334 3.2898,3.2898 0 0 0 -2.7715,1.3106 l -9.0137,11.666 c -0.81,-0.293 -1.69,-0.456 -2.61,-0.456 l -84.211,0 c -0.92137,0 -1.8004,0.1636 -2.6211,0.45117 l -9.02,-11.666 a 3.2898,3.2898 0 0 0 -2.543,-1.3125 z M 45.895,70 c -4.3737,0 -7.8945,3.5208 -7.8945,7.8945 l 0,52.211 c 0,4.3737 3.5208,7.8945 7.8945,7.8945 l 84.211,0 c 4.3737,0 7.8945,-3.5208 7.8945,-7.8945 l 0,-52.211 c 0.01,-4.368 -3.51,-7.889 -7.88,-7.889 l -84.211,0 z"
       style="fill:url(#radialGradient4398)"
       inkscape:connector-curvature="0" />
  </g>
  <path
     style="clip-rule:evenodd;fill:none"
     inkscape:connector-curvature="0"
     d="m 157.95973,25.516775 112.53691,0 0,112.536915 -112.53691,0 z"
     id="path3471" />
  <path
     style="fill:#0e0100;fill-opacity:1;stroke:#ebd25d;stroke-opacity:1;stroke-width:4;stroke-miterlimit:4;stroke-dasharray:none"
     inkscape:connector-curvature="0"
     d="M 264.40089,114.6085 221.73065,71.938251 c 4.22013,-10.784787 1.87561,-23.44519 -7.03356,-32.354362 -9.37808,-9.378076 -23.44519,-11.253691 -34.69888,-6.095749 l 20.16286,20.162863 -14.06711,14.067114 -20.63177,-20.162863 c -5.62684,11.253691 -3.28233,25.320805 6.09575,34.698881 8.90917,8.909172 21.56958,11.253691 32.35436,7.033557 l 42.67025,42.670248 c 1.87561,1.87561 4.68904,1.87561 6.56465,0 l 10.78479,-10.78479 c 2.34452,-1.87562 2.34452,-5.15794 0.4689,-6.56465 z"
     id="path3473" />
</svg>
